Usando o Tf-idf com os clássicos da política
…
remover_texto_desnecessario <- function(book, low_id, top_id = max(rowid), author = deparse(substitute(book))){
  book %>%
    mutate(author = as.factor(author)) %>% 
    rowid_to_column() %>% 
    filter(rowid >= {{low_id}}, rowid <= {{top_id}}) %>% 
    select(author, text, -c(rowid, gutenberg_id))}

books <- rbind(
  remover_texto_desnecessario(Marx, 157,6875),
  remover_texto_desnecessario(Hobbes, 360, 22317),
  remover_texto_desnecessario(Maquiavel, 464, 3790),
  remover_texto_desnecessario(Platao, 606))

## # A tibble: 47,959 x 2
##    author text                                                                  
##    <fct>  <chr>                                                                 
##  1 Marx   ""                                                                    
##  2 Marx   "I consider the system of bourgeois economy in the following order:"  
##  3 Marx   "_Capital_, _landed property_, _wage labor_; _state_, _foreign trade_~
##  4 Marx   "_world market_. Under the first three heads I examine the conditions"
##  5 Marx   "of the economic existence of the three great classes, which make up" 
##  6 Marx   "modern bourgeois society; the connection of the three remaining head~
##  7 Marx   "is self evident. The first part of the first book, treating of capit~
##  8 Marx   "consists of the following chapters: 1. Commodity; 2. Money, or simpl~
##  9 Marx   "circulation; 3. Capital in general. The first two chapters form the" 
## 10 Marx   "contents of the present work. The entire material lies before me in ~
## # ... with 47,949 more rows
…
